Model_ID,Sunshine_Hours_per_year,Size_Solar_Panel_m2,Generated_energy_kWh/a
1,1418,794,"233,616"
2,1474,1726,"525,410"
3,1335,5776,"1,612,292"
4,1224,6494,"1,681,651"
5,1320,2085,"576,313"
6,1203,4773,"1,217,766"
7,1406,81,"23,656"
8,1449,3387,"1,015,638"
9,1133,449,"108,842"
10,1313,903,"248,448"
11,1346,6130,"1,723,366"
12,1235,6639,"1,732,477"
13,1232,6256,"1,629,119"
14,1101,4696,"1,111,031"
15,1175,5299,"1,324,991"
16,1394,2509,"727,268"
17,1165,4464,"1,108,087"
18,1217,5719,"1,473,682"
19,1137,2912,"708,013"
